<?xml version="1.0" encoding="UTF-8"?>
<session version="1.0">
<refactoring comment="Rename resource &apos;TestFirst/testng.xml&apos; to &apos;first.xml&apos;" description="Rename resource &apos;testng.xml&apos;" flags="7" id="org.eclipse.ltk.core.refactoring.rename.resource" input="testng.xml" name="first.xml" stamp="1587576177566" updateReferences="true"/>
</session>